…
``` r
  NBAclean <- NBAclean %>% mutate_at(c(2, 5:29),as.numeric)
  NBAclean %>% mutate_if(is.character,as.factor)
```

    ## # A tibble: 169 x 29
    ##    NAME      `Salary ($)` TEAM  Position   Age    GP   MPG `Percentage of Team …
    ##    <fct>            <dbl> <fct> <fct>    <dbl> <dbl> <dbl>                 <dbl>
    ##  1 Stephen …     37457154 Gol   G         31.2    22  38.4                  80.1
    ##  2 Russell …     35665000 Okc   G         30.6     5  39.4                  82.2
    ##  3 Chris Pa…     35654150 Hou   G         34.1    11  36.1                  75.3
    ##  4 Kyle Low…     32700000 Tor   G         33.2    24  37.5                  78.2
    ##  5 Blake Gr…     31873932 Det   F         30.2     2  29.1                  60.5
    ##  6 Gordon H…     31214295 Bos   F         29.2     9  29.6                  61.7
    ##  7 James Ha…     30570000 Hou   G         29.8    11  38.6                  80.3
    ##  8 Paul Geo…     30560700 Okc   F         29.1     5  40.8                  85  
    ##  9 Kevin Du…     30000000 Gol   F         30.7    12  36.8                  76.7
    ## 10 Paul Mil…     29230769 Den   F         34.3    14  33.5                  69.8
    ## # … with 159 more rows, and 21 more variables: Usage Rate <dbl>,
    ## #   Turnover Rate <dbl>, FTA <dbl>, FT% <dbl>, 2PA <dbl>, 2P% <dbl>, 3PA <dbl>,
    ## #   3P% <dbl>, Effective Shooting % <dbl>, True Shooting % <dbl>,
    ## #   Points Per Game <dbl>, Rebounds Per Game <dbl>,
    ## #   Total Rebound Percentage <dbl>, Assists Per Game <dbl>, Assists % <dbl>,
    ## #   Steals Per Game <dbl>, Blocks Per Game <dbl>, Turnovers Per Game <dbl>,
    ## #   Versatility Index <dbl>, Offensive Rating <dbl>, Defensive Rating <dbl>
…
